lo: [i6-----] ICMPv6 :::0 --> ff02::1:ffa4:e108:0
lo: [i6-----] ICMPv6 fe80::c50d:519f:96a4:e108:0 --> ff02::2:0
lo: [i6-----] ICMPv6 fe80::c50d:519f:96a4:e108:0 --> ff02::16:0
lo: [i6-----] ICMPv6 fe80::c50d:519f:96a4:e108:0 --> ff02::1:0
lo: [i4-----] DHCP 0.0.0.0:68 --> 255.255.255.255:67 H: msedgewin10
lo: [i4-----] DHCP 10.0.2.2:67 <-- 10.0.2.15:68
lo: [i6-----] DHCPv6 fe80::c50d:519f:96a4:e108:546 <-- ff02::1:2:547
lo: [i4-----] IGMP 10.0.2.15:0 --> 224.0.0.22:0
lo: [i4-----] MDNS.netify.internal-network 10.0.2.15:5353 --> 224.0.0.251:5353 H: msedgewin10.local
lo: [i6-----] MDNS.netify.internal-network fe80::c50d:519f:96a4:e108:5353 --> ff02::fb:5353 H: msedgewin10.local
lo: [i6-----] LLMNR fe80::c50d:519f:96a4:e108:63717 --> ff02::1:3:5355 H: msedgewin10
lo: [i4-----] LLMNR 10.0.2.15:63717 --> 224.0.0.252:5355 H: msedgewin10
lo: [i4-----] NETBIOS 10.0.2.15:137 --> 10.0.2.255:137 H: msedgewin10
lo: [i6-----] WSD fe80::c50d:519f:96a4:e108:63958 --> ff02::c:3702
lo: [i4-----] WSD 10.0.2.15:63957 --> 239.255.255.250:3702
lo: [i4-----] SSDP 10.0.2.15:63962 --> 239.255.255.250:1900
lo: [i6-----] SSDP fe80::c50d:519f:96a4:e108:63960 --> ff02::c:1900
lo: [i6-----] WSD fe80::c50d:519f:96a4:e108:63965 --> ff02::c:3702
lo: [i4-----] WSD 10.0.2.15:63964 --> 239.255.255.250:3702
lo: [i4-----] NETBIOS 10.0.2.15:138 --> 10.0.2.255:138 H: msedgewin10
lo: [i4-----] SSDP 10.0.2.15:55708 --> 239.255.255.250:1900
lo: [i6-----] LLMNR fe80::c50d:519f:96a4:e108:62539 --> ff02::1:3:5355 H: puppet
lo: [i4-----] LLMNR 10.0.2.15:62539 --> 224.0.0.252:5355 H: puppet
lo: [i6-----] LLMNR fe80::c50d:519f:96a4:e108:50435 --> ff02::1:3:5355 H: puppet
lo: [i4-----] LLMNR 10.0.2.15:50435 --> 224.0.0.252:5355 H: puppet
lo: [i4-----] Gnutella 10.0.2.15:50199 --> 47.147.52.21:36728
lo: [i4-----] Gnutella 10.0.2.15:50196 --> 218.250.6.59:12556
lo: [i4-----] Gnutella 10.0.2.15:50197 --> 118.168.15.71:3931
lo: [i4-----] Gnutella 10.0.2.15:50203 --> 61.222.160.99:18994
lo: [i4-----] Gnutella 10.0.2.15:50206 --> 175.181.156.244:8255
lo: [i4-----] SSDP 10.0.2.15:57623 --> 239.255.255.250:1900
lo: [i4-----] Gnutella 10.0.2.15:50211 --> 14.199.10.60:23458
lo: [i4-----] Gnutella 10.0.2.15:50226 --> 116.241.162.162:15677
lo: [i4-----] Gnutella 10.0.2.15:50236 --> 93.29.135.209:6346
lo: [i4-----] Gnutella 10.0.2.15:50235 --> 45.88.118.70:6906
lo: [i4-----] Gnutella 10.0.2.15:50232 --> 182.155.242.225:15068
lo: [i4-----] ICMP 10.0.2.2:0 --> 10.0.2.15:0
lo: [i4-----] Gnutella 10.0.2.15:50249 --> 86.208.180.181:45883
lo: [i4-----] Gnutella 10.0.2.15:50248 --> 109.214.154.216:6346
lo: [i4-----] Gnutella 10.0.2.15:50250 --> 27.94.154.53:6346
lo: [i4-----] Gnutella 10.0.2.15:50252 --> 123.202.31.113:19768
lo: [i4-----] Gnutella 10.0.2.15:50253 --> 103.232.107.100:43508
lo: [i4-----] Gnutella 10.0.2.15:50262 --> 80.61.221.246:30577
lo: [i4-----] Gnutella 10.0.2.15:50259 --> 183.179.90.112:9852
lo: [i4-----] Gnutella 10.0.2.15:50261 --> 156.57.42.2:33476
lo: [i4-----] Gnutella 10.0.2.15:50198 --> 86.129.196.84:9915
lo: [i4-----] Gnutella 10.0.2.15:50267 --> 113.252.86.162:9239
lo: [i4-----] Gnutella 10.0.2.15:50268 --> 210.209.249.84:24751
lo: [i4-----] Gnutella 10.0.2.15:50269 --> 218.103.139.2:3186
lo: [i4-----] Gnutella 10.0.2.15:50285 --> 75.133.101.93:52367
lo: [i4-----] Gnutella 10.0.2.15:50284 --> 104.156.226.72:53258
lo: [i4-----] Gnutella 10.0.2.15:28681 <-- 96.65.68.194:35481
lo: [i4-----] Gnutella 10.0.2.15:28681 <-- 181.84.178.16:60262
lo: [i4-----] Gnutella 10.0.2.15:28681 --> 66.30.221.181:12012
lo: [i4-----] Gnutella 10.0.2.15:28681 --> 45.88.117.218:6909
lo: [i4-----] Gnutella 10.0.2.15:28681 --> 51.68.153.214:26253
lo: [i4-----] Gnutella 10.0.2.15:28681 <-- 185.203.218.92:56962
lo: [i4-----] Gnutella 10.0.2.15:28681 <-- 72.140.120.41:47739
lo: [i4-----] Gnutella 10.0.2.15:28681 <-- 193.37.255.130:61616
lo: [i4-----] Gnutella 10.0.2.15:28681 --> 88.120.73.215:24562
lo: [i4-----] Gnutella 10.0.2.15:28681 <-- 80.61.221.246:30577
lo: [i4-----] Gnutella 10.0.2.15:28681 <-- 96.246.156.126:50297
lo: [i4-----] Gnutella 10.0.2.15:28681 <-- 82.181.251.218:36368
lo: [i4-----] Gnutella 10.0.2.15:28681 --> 24.26.216.95:13889
lo: [i4-----] Gnutella 10.0.2.15:28681 <-- 103.232.107.100:43508
lo: [i4-----] Gnutella 10.0.2.15:28681 --> 46.128.114.107:6578
lo: [i4-----] Gnutella 10.0.2.15:28681 --> 60.241.48.194:21301
lo: [i4-----] Gnutella 10.0.2.15:28681 <-- 89.75.52.19:46010
lo: [i4-----] Gnutella 10.0.2.15:28681 --> 82.217.176.52:7446
lo: [i4-----] Gnutella 10.0.2.15:28681 --> 95.10.205.67:11603
lo: [i4-----] Gnutella 10.0.2.15:28681 --> 203.220.198.244:1194
lo: [i4-----] Gnutella 10.0.2.15:50300 --> 188.61.52.183:11852
lo: [i4-----] Gnutella 10.0.2.15:50316 --> 142.132.165.13:30566
lo: [i4-----] Gnutella 10.0.2.15:50296 --> 77.58.211.52:3806
lo: [i4-----] Gnutella 10.0.2.15:50320 --> 194.163.180.126:10825
lo: [i4-----] Gnutella 10.0.2.15:50319 --> 185.187.74.173:53489
lo: [i4-----] Gnutella 10.0.2.15:50317 --> 188.165.203.190:21995
lo: [i4-----] Gnutella 10.0.2.15:50303 --> 88.120.73.215:24562
lo: [i4-----] Gnutella 10.0.2.15:50318 --> 193.32.126.214:59596
lo: [i4-----] Gnutella 10.0.2.15:50312 --> 104.238.172.250:23548
lo: [i4-----] Gnutella 10.0.2.15:50304 --> 85.168.34.105:39908
lo: [i4-----] Gnutella 10.0.2.15:50323 --> 51.68.153.214:26253
lo: [i4-----] Gnutella 10.0.2.15:50301 --> 87.123.54.234:54130
lo: [i4-----] TLS 10.0.2.15:50314 --> 80.7.252.192:6888
lo: [i4-----] Gnutella 10.0.2.15:50298 --> 46.128.114.107:6578
lo: [i4-----] Gnutella 10.0.2.15:50322 --> 164.132.10.25:55302
lo: [i4-----] Gnutella 10.0.2.15:50307 --> 176.99.176.20:6346
lo: [i4-----] Gnutella 10.0.2.15:50295 --> 38.142.119.234:49732
lo: [i4-u---] TLS 10.0.2.15:50314 --> 80.7.252.192:6888
lo: [i4-----] Gnutella 10.0.2.15:50308 --> 193.37.255.130:61616
lo: [i4-----] Gnutella 10.0.2.15:50313 --> 96.65.68.194:35481
lo: [i4-----] Gnutella 10.0.2.15:50315 --> 45.31.152.112:26851
lo: [i4-----] Gnutella 10.0.2.15:50302 --> 75.64.6.175:4743
lo: [i4-----] Gnutella 10.0.2.15:50293 --> 97.83.183.148:8890
lo: [i4-----] Gnutella 10.0.2.15:50311 --> 149.28.163.175:49956
lo: [i4-----] Gnutella 10.0.2.15:50306 --> 220.238.145.82:33527
lo: [i4-----] Gnutella 10.0.2.15:50299 --> 203.220.198.244:1194
lo: [i4-----] Gnutella 10.0.2.15:50309 --> 60.241.48.194:21301
lo: [i4-----] Gnutella 10.0.2.15:50294 --> 14.200.255.229:37058
lo: [i4-----] Gnutella 10.0.2.15:50297 --> 14.200.255.229:45710
lo: [i4-----] Gnutella 10.0.2.15:28681 <-- 72.201.208.57:38617
lo: [i4-----] Gnutella 10.0.2.15:28681 <-- 81.205.91.45:40137
lo: [i4-----] Gnutella 10.0.2.15:28681 --> 47.220.186.140:27641
lo: [i4-----] Gnutella 10.0.2.15:28681 --> 118.240.69.199:6348
lo: [i4-----] Gnutella 10.0.2.15:28681 <-- 109.132.188.98:62851
lo: [i4-----] Gnutella 10.0.2.15:28681 <-- 24.167.201.53:47282
lo: [i4-----] Gnutella 10.0.2.15:28681 --> 176.99.176.20:6346
lo: [i4-----] Gnutella 10.0.2.15:28681 --> 71.237.202.91:16117
lo: [i4-----] Gnutella 10.0.2.15:28681 --> 92.217.84.16:20223
lo: [i4-----] Gnutella 10.0.2.15:28681 <-- 94.54.66.82:63637
lo: [i4-----] Gnutella 10.0.2.15:28681 <-- 96.236.205.7:34794
lo: [i4-----] Gnutella 10.0.2.15:28681 <-- 173.183.183.110:59920
lo: [i4-----] Gnutella 10.0.2.15:28681 <-- 164.132.10.25:55302
lo: [i4-----] Gnutella 10.0.2.15:28681 <-- 185.236.200.137:48142
lo: [i4-----] Gnutella 10.0.2.15:28681 --> 188.165.203.190:21995
lo: [i4-----] Gnutella 10.0.2.15:28681 --> 45.88.117.219:6909
lo: [i4-----] Gnutella 10.0.2.15:28681 <-- 96.246.156.126:56070
lo: [i4-----] Gnutella 10.0.2.15:28681 --> 73.250.179.237:20848
lo: [i4-----] Gnutella 10.0.2.15:28681 <-- 83.160.143.48:37036
lo: [i4-----] Gnutella 10.0.2.15:28681 <-- 100.1.231.138:56558
lo: [i4-----] Gnutella 10.0.2.15:28681 <-- 84.28.53.225:44859
lo: [i4-----] Gnutella 10.0.2.15:28681 --> 203.220.105.27:19260
lo: [i4-----] Gnutella 10.0.2.15:28681 --> 92.117.249.98:6815
lo: [i4-----] Gnutella 10.0.2.15:28681 --> 82.64.44.11:1352
lo: [i4-----] Gnutella 10.0.2.15:28681 --> 45.31.152.112:26851
lo: [i4-----] Gnutella 10.0.2.15:28681 --> 213.229.111.224:4876
lo: [i4-----] Gnutella 10.0.2.15:50291 --> 200.7.155.210:28365
lo: [i4-----] Gnutella 10.0.2.15:50327 --> 69.118.162.229:46906 H: 69.118.162.229
lo: [i4-----] Gnutella 10.0.2.15:50328 --> 189.147.72.83:26108 H: 189.147.72.83
lo: [i4-----] Gnutella 10.0.2.15:28681 --> 80.7.252.192:6888
lo: [i4-----] Gnutella 10.0.2.15:28681 <-- 24.116.64.132:51227
lo: [i4-----] Gnutella 10.0.2.15:28681 --> 221.198.205.196:20778
lo: [i4-----] Gnutella 10.0.2.15:28681 <-- 87.123.54.234:54130
lo: [i4-----] Gnutella 10.0.2.15:28681 <-- 38.142.119.234:49732
lo: [i4-----] Gnutella 10.0.2.15:28681 --> 24.129.233.60:19990
lo: [i4-----] Gnutella 10.0.2.15:28681 --> 98.208.26.154:4994
lo: [i4-----] Gnutella 10.0.2.15:28681 --> 89.212.91.155:5195
lo: [i4-----] Gnutella 10.0.2.15:28681 --> 207.38.163.228:6778
lo: [i4-----] Gnutella 10.0.2.15:50330 --> 69.118.162.229:46906 H: 69.118.162.229
lo: [i4-----] Gnutella 10.0.2.15:28681 --> 76.226.85.105:6346
lo: [i4-----] Gnutella 10.0.2.15:28681 --> 176.10.169.10:12799
lo: [i4-----] Gnutella 10.0.2.15:28681 --> 84.197.97.94:1360
lo: [i4-----] ICMP 10.0.2.15:0 <-- 84.197.97.94:0
lo: [i4-----] Gnutella 10.0.2.15:28681 --> 99.250.253.99:11819
lo: [i4-----] Gnutella 10.0.2.15:28681 <-- 181.118.53.212:29998
lo: [i4-----] Gnutella 10.0.2.15:28681 --> 63.228.175.169:1936
lo: [i4-----] Gnutella 10.0.2.15:28681 <-- 98.35.85.238:32173
lo: [i4-----] Gnutella 10.0.2.15:28681 --> 47.224.174.174:6346
lo: [i4-----] SSDP 10.0.2.15:51685 --> 239.255.255.250:1900
lo: [i4-----] Gnutella 10.0.2.15:28681 <-- 198.58.218.12:47912
lo: [i4-----] Gnutella 10.0.2.15:28681 --> 86.129.196.84:9915
lo: [i4-----] Gnutella 10.0.2.15:28681 --> 190.192.210.182:6754
lo: [i4-----] Gnutella 10.0.2.15:28681 <-- 81.205.91.45:38297
lo: [i4-----] Gnutella 10.0.2.15:28681 --> 194.163.180.126:10825
lo: [i4-----] Gnutella 10.0.2.15:28681 --> 188.23.24.213:18561
lo: [i4-----] Gnutella 10.0.2.15:28681 <-- 94.8.55.158:51140
lo: [i4-----] Gnutella 10.0.2.15:28681 <-- 149.28.163.175:49956
lo: [i4-----] Gnutella 10.0.2.15:28681 <-- 47.147.52.21:36728
lo: [i4-----] SSDP 10.0.2.15:57552 --> 239.255.255.250:1900
lo: [i4-----] ICMP 10.0.2.15:0 <-- 164.132.10.25:0
lo: [i4-----] SSDP 10.0.2.15:50213 --> 239.255.255.250:1900
lo: [i4-----] ICMP 10.0.2.15:0 <-- 65.182.231.232:0
lo: [i4-----] SSDP 10.0.2.15:50214 --> 239.255.255.250:1900
lo: [i4-----] ICMP 10.0.2.15:0 <-- 154.3.42.209:0
lo: [i4-----] Unknown 10.0.2.15:28681 --> 122.117.100.78:9010
lo: [i4-----] Unknown 10.0.2.15:28681 --> 86.162.97.8:6346
lo: [i4-----] Unknown 10.0.2.15:50204 --> 124.218.26.16:9728
lo: [i4-----] Unknown 10.0.2.15:28681 --> 118.166.252.163:14391
lo: [i4-----] Unknown 10.0.2.15:28681 <-- 118.168.15.71:53516
lo: [i4-----] Unknown 10.0.2.15:28681 --> 74.127.26.138:3083
lo: [i4-----] Unknown 10.0.2.15:28681 --> 80.7.252.192:24634
lo: [i4-----] Unknown 10.0.2.15:50280 --> 99.199.148.6:4338
lo: [i4-----] Unknown 10.0.2.15:50222 --> 119.14.143.237:6523
lo: [i4-----] Unknown 10.0.2.15:28681 <-- 119.237.190.184:64163
lo: [i4-----] Unknown 10.0.2.15:28681 <-- 220.238.145.82:33527
lo: [i4-----] Unknown 10.0.2.2:1026 <-- 10.0.2.15:28681
lo: [i4-----] Unknown 10.0.2.15:28681 <-- 183.179.14.31:54754
lo: [i4-----] Unknown 10.0.2.15:28681 --> 219.68.179.137:6406
lo: [i4-----] Unknown 10.0.2.15:28681 --> 58.177.52.73:6346
lo: [i4-----] Unknown 10.0.2.15:28681 <-- 83.150.49.35:32448
lo: [i4-----] Unknown 10.0.2.15:28681 --> 124.218.26.16:8658
lo: [i4-----] Unknown 10.0.2.15:50215 --> 124.244.64.237:4704
lo: [i4-----] Unknown 10.0.2.15:28681 --> 99.199.148.6:4338
lo: [i4-----] Unknown 10.0.2.15:28681 <-- 14.199.10.60:53906
lo: [i4-----] Unknown 10.0.2.15:28681 --> 125.59.215.249:14571
lo: [i4-----] Unknown 10.0.2.15:28681 --> 182.155.242.225:15068
lo: [i4-----] Unknown 1.163.14.246:23461 <-- 10.0.2.15:28681
lo: [i4-----] Unknown 10.0.2.15:28681 <-- 61.18.212.223:58954
lo: [i4-----] Unknown 10.0.2.15:28681 <-- 203.165.170.112:37087
lo: [i4-----] Unknown 10.0.2.15:28681 --> 129.45.47.167:6346
lo: [i4-----] Unknown 10.0.2.15:50263 --> 73.182.136.42:27873
lo: [i4-----] Unknown 10.0.2.15:28681 --> 98.215.130.156:12405
lo: [i4-----] Unknown 10.0.2.15:28681 --> 182.155.128.228:3227
lo: [i4-----] Unknown 10.0.2.15:28681 --> 182.155.128.228:3259
lo: [i4-----] Unknown 10.0.2.15:28681 <-- 209.204.207.5:49256
lo: [i4-----] Unknown 10.0.2.15:28681 <-- 84.100.76.123:39628
lo: [i4-----] Unknown 10.0.2.15:28681 --> 220.135.8.7:1219
lo: [i4-----] Unknown 10.0.2.15:50264 --> 95.10.205.67:48380
lo: [i4-----] Unknown 10.0.2.15:28681 --> 220.134.167.82:5820
lo: [i4-----] Unknown 10.0.2.15:28681 <-- 122.117.100.78:56128
lo: [i4-----] Unknown 10.0.2.15:28681 --> 180.218.135.222:4548
lo: [i4-----] Unknown 10.0.2.15:28681 --> 175.182.21.156:13732
lo: [i4-----] Unknown 10.0.2.15:28681 --> 114.27.24.95:10677
lo: [i4-----] Unknown 10.0.2.15:28681 --> 118.165.228.167:12201
lo: [i4-----] Unknown 10.0.2.15:28681 --> 82.65.70.197:21693
lo: [i4-----] Unknown 10.0.2.15:28681 <-- 92.131.85.245:31743
lo: [i4-----] Unknown 10.0.2.15:28681 --> 77.222.213.44:26536
lo: [i4-----] Unknown 1.36.249.91:7190 <-- 10.0.2.15:28681
lo: [i4-----] Unknown 10.0.2.15:28681 <-- 123.205.13.148:51896
lo: [i4-----] Unknown 10.0.2.15:28681 <-- 176.155.52.115:53956
lo: [i4-----] Unknown 10.0.2.15:28681 --> 126.117.45.151:19323
lo: [i4-----] Unknown 10.0.2.15:28681 --> 76.174.174.69:21358
lo: [i4-----] Unknown 10.0.2.15:28681 --> 124.218.41.253:14339
lo: [i4-----] Unknown 10.0.2.15:28681 <-- 80.193.171.146:65362
lo: [i4-----] Unknown 8.44.149.207:30551 --> 10.0.2.15:28681
lo: [i4-----] Unknown 10.0.2.15:28681 <-- 142.132.165.13:33564
lo: [i4-----] Unknown 10.0.2.15:28681 --> 93.28.130.131:6346
lo: [i4-----] Unknown 10.0.2.15:28681 --> 78.219.202.2:6346
lo: [i4-----] Unknown 10.0.2.15:28681 --> 167.114.170.156:23844
lo: [i4-----] Unknown 10.0.2.15:28681 --> 91.69.159.133:28000
lo: [i4-----] Unknown 10.0.2.15:28681 --> 88.160.214.137:6346
lo: [i4-----] Unknown 10.0.2.15:28681 --> 175.39.219.223:13482
lo: [i4-----] Unknown 10.0.2.15:28681 <-- 68.174.18.115:50679
lo: [i4-----] Unknown 10.0.2.15:28681 --> 180.149.125.139:6578
lo: [i4-----] Unknown 10.0.2.15:28681 <-- 36.237.199.108:56040
lo: [i4-----] Unknown 10.0.2.15:28681 --> 91.179.185.126:6346
lo: [i4-----] Unknown 10.0.2.15:28681 --> 88.168.175.31:6346
lo: [i4-----] Unknown 10.0.2.15:50282 --> 221.124.66.33:13060
lo: [i4-----] Unknown 10.0.2.15:28681 --> 36.239.213.146:21750
lo: [i4-----] Unknown 10.0.2.15:28681 --> 188.61.52.183:11852
lo: [i4-----] Unknown 10.0.2.15:28681 --> 86.225.140.186:6346
lo: [i4-----] Unknown 10.0.2.15:28681 --> 50.58.238.163:6599
lo: [i4-----] Unknown 10.0.2.15:28681 <-- 203.220.198.244:50896
lo: [i4-----] Unknown 10.0.2.15:28681 --> 188.149.2.44:20964
lo: [i4-----] Unknown 10.0.2.15:28681 <-- 113.255.250.32:52647
lo: [i4-----] Unknown 10.0.2.15:28681 --> 116.241.162.162:15677
lo: [i4-----] Unknown 10.0.2.15:28681 --> 195.181.151.217:6346
lo: [i4-----] Unknown 10.0.2.15:28681 <-- 77.141.219.27:37580
lo: [i4-----] Unknown 10.0.2.15:28681 <-- 36.236.203.37:52131
lo: [i4-----] Unknown 10.0.2.15:28681 <-- 118.168.15.71:58442
lo: [i4-----] Unknown 10.0.2.15:28681 --> 183.179.90.112:9852
lo: [i4-----] Unknown 5.180.62.37:6346 <-- 10.0.2.15:28681
lo: [i4-----] Unknown 10.0.2.2:5351 <-- 10.0.2.15:57621
lo: [i4-----] Unknown 10.0.2.15:28681 --> 84.125.218.84:17561
lo: [i4-----] Unknown 10.0.2.15:28681 <-- 59.104.173.5:49803
lo: [i4-----] Unknown 10.0.2.15:28681 <-- 116.241.162.162:57929
lo: [i4-----] Unknown 10.0.2.15:28681 --> 219.71.44.121:14398
lo: [i4-----] Unknown 10.0.2.15:28681 --> 197.244.171.132:6346
lo: [i4-----] Unknown 10.0.2.15:28681 --> 91.172.56.198:11984
lo: [i4-----] Unknown 10.0.2.15:28681 --> 173.178.192.76:6346
lo: [i4-----] Unknown 10.0.2.15:28681 --> 91.206.27.26:6578
lo: [i4-----] Unknown 10.0.2.15:28681 <-- 104.238.172.250:42925
lo: [i4-----] Unknown 10.0.2.15:28681 --> 112.105.52.2:6466
lo: [i4-----] Unknown 10.0.2.15:28681 --> 58.153.206.183:16919
lo: [i4-----] Unknown 10.0.2.15:28681 <-- 61.70.199.107:60475
lo: [i4-----] Unknown 10.0.2.15:28681 --> 104.6.118.53:6346
lo: [i4-----] Unknown 10.0.2.15:28681 --> 92.139.61.103:24096
lo: [i4-----] Unknown 10.0.2.15:28681 <-- 86.194.53.68:33770
lo: [i4-----] Unknown 10.0.2.15:28681 <-- 109.27.3.68:57380
lo: [i4-----] Unknown 10.0.2.15:28681 <-- 195.132.75.56:56009
lo: [i4-----] Unknown 10.0.2.15:28681 --> 114.39.154.69:4832
lo: [i4-----] Unknown 10.0.2.15:50224 --> 78.125.63.97:6346
lo: [i4-----] Unknown 10.0.2.15:28681 <-- 114.47.227.91:54463
lo: [i4-----] Unknown 10.0.2.15:28681 <-- 14.200.255.229:45710
lo: [i4-----] Unknown 10.0.2.15:28681 --> 154.3.42.209:6346
lo: [i4-----] Unknown 10.0.2.15:28681 --> 78.159.27.22:17563
lo: [i4-----] Unknown 10.0.2.15:28681 --> 81.242.191.215:6346
lo: [i4-----] Unknown 10.0.2.15:28681 --> 58.182.171.50:15180
lo: [i4-----] Unknown 10.0.2.15:50257 --> 219.70.48.23:3054
lo: [i4-----] Unknown 10.0.2.15:28681 <-- 96.59.117.166:33192
lo: [i4-----] Unknown 10.0.2.15:28681 <-- 89.204.130.55:29545
lo: [i4-----] Unknown 10.0.2.15:28681 --> 74.210.244.72:6346
lo: [i4-----] Unknown 10.0.2.15:28681 --> 182.155.128.228:4364
lo: [i4-----] Unknown 10.0.2.15:28681 <-- 36.234.18.166:61319
lo: [i4-----] Unknown 10.0.2.15:28681 --> 80.193.171.146:18360
lo: [i4-----] Unknown 10.0.2.15:28681 <-- 113.252.86.162:54436
lo: [i4-----] Unknown 10.0.2.15:28681 --> 165.169.215.213:23576
lo: [i4-----] Unknown 10.0.2.15:28681 --> 41.249.63.200:22582
lo: [i4-----] Unknown 10.0.2.15:28681 --> 212.68.248.153:27223
lo: [i4-----] Unknown 10.0.2.15:28681 --> 86.244.228.86:10131
lo: [i4-----] Unknown 10.0.2.2:5351 <-- 10.0.2.15:57620
lo: [i4-----] Unknown 10.0.2.15:28681 <-- 164.132.10.25:48250
lo: [i4-----] Unknown 10.0.2.15:28681 --> 101.136.187.253:10914
lo: [i4-----] Unknown 10.0.2.15:28681 <-- 78.196.216.12:58910
lo: [i4-----] Unknown 10.0.2.15:28681 --> 90.103.2.245:6346
lo: [i4-----] Unknown 10.0.2.15:28681 --> 42.0.69.215:12608
lo: [i4-----] Unknown 10.0.2.15:28681 --> 87.69.142.133:15471
lo: [i4-----] Unknown 10.0.2.15:28681 --> 68.66.94.132:17735
lo: [i4-----] Unknown 10.0.2.15:28681 --> 142.115.218.152:5900
lo: [i4-----] Unknown 10.0.2.15:50194 --> 92.152.66.153:43771
lo: [i4-----] Unknown 10.0.2.15:28681 --> 113.252.91.201:4297
lo: [i4-----] Unknown 10.0.2.15:28681 <-- 113.252.86.162:54914
lo: [i4-----] Unknown 10.0.2.15:28681 --> 61.10.174.159:4841
lo: [i4-----] Unknown 10.0.2.15:28681 --> 71.239.173.18:23327
lo: [i4-----] Unknown 10.0.2.15:28681 <-- 213.229.111.224:43316
lo: [i4-----] Unknown 10.0.2.15:28681 --> 71.86.190.163:14142
lo: [i4-----] Unknown 10.0.2.15:28681 --> 114.24.182.130:22232
lo: [i4-----] Unknown 10.0.2.15:28681 --> 161.81.38.67:9539
lo: [i4-----] Unknown 10.0.2.15:28681 --> 73.182.136.42:27873
lo: [i4-----] Unknown 10.0.2.15:50275 --> 122.117.100.78:9010
lo: [i4-----] Unknown 10.0.2.15:50255 --> 36.236.203.37:52165
lo: [i4-----] Unknown 10.0.2.15:28681 --> 119.14.143.237:13965
lo: [i4-----] Unknown 10.0.2.15:28681 --> 86.227.127.34:6346
lo: [i4-----] Unknown 10.0.2.15:28681 <-- 193.32.126.214:59596
lo: [i4-----] Unknown 10.0.2.15:50283 --> 51.68.153.214:35004
lo: [i4-----] Unknown 10.0.2.15:28681 <-- 91.172.15.182:37829
lo: [i4-----] Unknown 10.0.2.15:28681 --> 27.94.154.53:6346
lo: [i4-----] Unknown 10.0.2.15:28681 <-- 218.103.139.2:64731
lo: [i4-----] Unknown 10.0.2.15:28681 <-- 84.118.116.198:44616
lo: [i4-----] Unknown 10.0.2.15:28681 <-- 67.193.8.52:38584
lo: [i4-----] Unknown 10.0.2.15:50221 --> 59.104.173.5:49956
lo: [i4-----] Unknown 10.0.2.15:50209 --> 113.252.206.254:49587
lo: [i4-----] Unknown 1.65.217.224:18381 <-- 10.0.2.15:28681
lo: [i4-----] Unknown 10.0.2.15:28681 <-- 94.134.154.158:54130
lo: [i4-----] Unknown 10.0.2.15:28681 <-- 36.235.85.44:64914
lo: [i4-----] Unknown 10.0.2.15:28681 --> 109.24.146.101:6346
lo: [i4-----] Unknown 10.0.2.15:28681 --> 94.187.236.179:6346
lo: [i4-----] Unknown 10.0.2.15:50305 --> 94.54.66.82:63637
lo: [i4-----] Unknown 1.163.14.246:12854 <-- 10.0.2.15:50233
lo: [i4-----] Unknown 10.0.2.15:50207 --> 90.78.171.204:6346
lo: [i4-----] Unknown 10.0.2.15:50195 --> 162.157.143.201:29762
lo: [i4-----] Unknown 10.0.2.15:28681 --> 50.58.238.163:6564
lo: [i4-----] Unknown 10.0.2.15:28681 --> 219.70.1.236:9369
lo: [i4-----] Unknown 10.0.2.15:28681 --> 223.16.83.5:10624
lo: [i4-----] Unknown 10.0.2.15:28681 --> 114.45.40.28:2656
lo: [i4-----] Unknown 10.0.2.15:28681 --> 113.252.206.254:23458
lo: [i4-----] Unknown 10.0.2.15:28681 <-- 112.119.59.24:28755
lo: [i4-----] Unknown 10.0.2.15:28681 --> 80.236.247.120:1032
lo: [i4-----] Unknown 10.0.2.15:28681 --> 96.29.197.138:6346
lo: [i4-----] Unknown 10.0.2.15:28681 --> 76.26.178.132:10053
lo: [i4-----] Unknown 10.0.2.15:28681 <-- 87.75.180.80:35361
lo: [i4-----] Unknown 10.0.2.15:28681 --> 93.15.216.216:6346
lo: [i4-----] Unknown 10.0.2.15:28681 <-- 78.193.236.8:46557
lo: [i4-----] Unknown 10.0.2.15:28681 <-- 91.162.52.93:34799
lo: [i4-----] Unknown 10.0.2.15:28681 <-- 61.93.150.146:62507
lo: [i4-----] Unknown 10.0.2.15:50231 --> 76.68.138.207:45079
lo: [i4-----] Unknown 10.0.2.15:28681 --> 182.155.128.228:3256
lo: [i4-----] Unknown 1.171.82.65:50072 --> 10.0.2.15:28681
lo: [i4-----] Unknown 10.0.2.15:28681 --> 223.17.132.18:23458
lo: [i4-----] Unknown 10.0.2.15:28681 <-- 61.222.160.99:53144
lo: [i4-----] Unknown 10.0.2.15:28681 <-- 62.102.148.166:31332
lo: [i4-----] Unknown 10.0.2.15:28681 <-- 66.223.143.31:47978
lo: [i4-----] Unknown 10.0.2.15:28681 --> 62.35.190.5:18604
lo: [i4-----] Unknown 10.0.2.15:50292 --> 95.10.205.67:11603
lo: [i4-----] Unknown 10.0.2.15:28681 --> 91.179.98.234:6346
lo: [i4-----] Unknown 10.0.2.15:28681 --> 81.249.13.30:15138
lo: [i4-----] Unknown 10.0.2.15:50258 --> 122.100.216.210:7097
lo: [i4-----] Unknown 10.0.2.15:28681 --> 114.27.24.95:10728
lo: [i4-----] Unknown 10.0.2.15:28681 <-- 150.116.225.105:51438
lo: [i4-----] Unknown 10.0.2.15:28681 --> 118.168.15.71:3931
lo: [i4-----] Unknown 10.0.2.15:28681 --> 75.129.149.103:6346
lo: [i4-----] Unknown 10.0.2.15:28681 --> 83.86.49.195:12019
lo: [i4-----] Unknown 10.0.2.15:28681 <-- 174.115.111.224:51984
lo: [i4-----] Unknown 10.0.2.15:50200 --> 176.128.217.128:45194
lo: [i4-----] Unknown 10.0.2.15:50192 --> 45.65.87.24:16201
lo: [i4-----] Unknown 10.0.2.15:28681 --> 23.19.141.110:6346
lo: [i4-----] Unknown 1.172.183.237:4983 <-- 10.0.2.15:28681
lo: [i4-----] Unknown 1.64.156.63:65023 --> 10.0.2.15:28681
lo: [i4-----] Unknown 10.0.2.15:28681 <-- 31.20.248.147:30706
lo: [i4-----] Unknown 10.0.2.15:28681 <-- 59.104.173.5:49815
lo: [i4-----] Unknown 10.0.2.15:28681 <-- 123.205.118.77:60482
lo: [i4-----] Unknown 10.0.2.15:28681 <-- 69.27.193.124:50555
lo: [i4-----] Unknown 10.0.2.15:28681 --> 195.181.151.217:25282
lo: [i4-----] Unknown 10.0.2.15:28681 <-- 84.126.240.32:45313
lo: [i4-----] Unknown 10.0.2.15:28681 --> 219.85.11.85:10722
lo: [i4-----] Unknown 10.0.2.15:28681 --> 213.32.245.121:12333
lo: [i4-----] Unknown 10.0.2.15:28681 <-- 149.28.163.175:42288
lo: [i4-----] Unknown 10.0.2.15:28681 --> 218.164.200.235:2034
lo: [i4-----] Unknown 10.0.2.15:28681 --> 36.234.197.93:1483
lo: [i4-----] Unknown 10.0.2.15:28681 <-- 185.187.74.173:46790
lo: [i4-----] Unknown 10.0.2.15:28681 <-- 218.103.139.2:51675
lo: [i4-----] Unknown 10.0.2.15:28681 --> 86.227.162.150:6346
lo: [i4-----] Unknown 10.0.2.15:28681 --> 154.3.42.104:11804
lo: [i4-----] Unknown 10.0.2.15:50212 --> 95.17.124.40:6776
lo: [i4-----] Unknown 10.0.2.15:28681 --> 219.85.10.83:8797
lo: [i4-----] Unknown 10.0.2.15:28681 <-- 92.142.109.190:41370
lo: [i4-----] Unknown 10.0.2.15:28681 <-- 188.61.52.183:63978
lo: [i4-----] Unknown 10.0.2.15:28681 --> 187.37.87.189:6346
lo: [i4-----] Unknown 10.0.2.15:28681 --> 90.59.253.186:15555
lo: [i4-----] Unknown 1.36.249.91:64577 --> 10.0.2.15:28681
lo: [i4-----] Unknown 10.0.2.15:28681 <-- 218.250.6.59:60012
lo: [i4-----] Unknown 10.0.2.15:50278 --> 36.231.59.187:62234
lo: [i4-----] Unknown 10.0.2.15:28681 --> 80.236.247.120:16047
lo: [i4-----] Unknown 10.0.2.15:28681 --> 123.110.61.169:11973
lo: [i4-----] Unknown 10.0.2.15:28681 --> 221.124.66.33:13060
lo: [i4-----] Unknown 10.0.2.15:28681 <-- 218.103.139.2:51497
lo: [i4-----] Unknown 10.0.2.15:28681 --> 83.114.40.175:23552
lo: [i4-----] Unknown 10.0.2.15:28681 --> 210.194.116.78:8342
lo: [i4-----] Unknown 10.0.2.15:28681 <-- 124.217.188.105:62849
lo: [i4-----] Unknown 10.0.2.15:28681 <-- 116.241.162.162:59016
lo: [i4-----] Unknown 10.0.2.15:28681 --> 176.191.49.159:6346
lo: [i4-----] Unknown 10.0.2.15:28681 --> 69.157.183.106:6346
lo: [i4-----] Unknown 10.0.2.15:28681 --> 172.97.199.14:6346
lo: [i4-----] Unknown 10.0.2.15:50218 --> 90.103.247.94:59045
lo: [i4-----] Unknown 10.0.2.2:5351 <-- 10.0.2.15:57622
lo: [i4-----] Unknown 10.0.2.15:28681 --> 36.233.42.210:5512
lo: [i4-----] Unknown 10.0.2.15:28681 <-- 87.123.54.234:47184
lo: [i4-----] Unknown 10.0.2.15:50213 --> 85.117.153.7:50138
lo: [i4-----] Unknown 10.0.2.15:28681 <-- 218.103.139.2:51379
lo: [i4-----] Unknown 10.0.2.15:28681 <-- 61.18.212.223:58290
lo: [i4-----] Unknown 10.0.2.15:28681 <-- 123.203.72.224:53658
lo: [i4-----] Unknown 10.0.2.15:28681 --> 73.192.231.237:9676
lo: [i4-----] Unknown 10.0.2.15:28681 --> 175.181.156.244:8255
lo: [i4-----] Unknown 10.0.2.15:28681 <-- 114.73.129.26:53585
lo: [i4-----] Unknown 10.0.2.15:28681 --> 83.46.253.7:6346
lo: [i4-----] Unknown 10.0.2.15:50265 --> 113.255.250.32:52647
lo: [i4-----] Unknown 10.0.2.15:28681 <-- 83.92.178.182:57302
lo: [i4-----] Unknown 10.0.2.15:28681 <-- 188.165.203.190:55050
lo: [i4-----] Unknown 10.0.2.15:28681 <-- 36.236.203.37:52669
lo: [i4-----] Unknown 10.0.2.15:28681 --> 36.233.199.103:2625
lo: [i4-----] Unknown 10.0.2.15:28681 --> 86.234.216.251:17845
lo: [i4-----] Unknown 10.0.2.15:28681 --> 77.58.211.52:3806
lo: [i4-----] Unknown 10.0.2.15:28681 --> 88.127.72.106:6346
lo: [i4-----] Unknown 10.0.2.15:50216 --> 182.155.128.228:3256
lo: [i4-----] Unknown 10.0.2.15:28681 --> 119.14.143.237:8075
lo: [i4-----] Unknown 10.0.2.15:28681 --> 76.119.55.28:20347
lo: [i4-----] Unknown 10.0.2.15:28681 --> 176.134.139.39:6346
lo: [i4-----] Unknown 10.0.2.15:28681 <-- 66.131.24.72:30711
lo: [i4-----] Unknown 10.0.2.15:28681 --> 112.119.242.110:7922
lo: [i4-----] Unknown 10.0.2.15:50237 --> 88.123.202.175:37910
lo: [i4-----] Unknown 10.0.2.15:28681 <-- 79.191.58.38:48157
lo: [i4-----] Unknown 10.0.2.15:28681 --> 84.211.151.48:11105
lo: [i4-----] Unknown 10.0.2.15:28681 <-- 120.156.204.38:54832
lo: [i4-----] Unknown 10.0.2.15:28681 --> 88.126.160.158:6346
lo: [i4-----] Unknown 10.0.2.15:28681 --> 118.166.226.70:6346
lo: [i4-----] Unknown 10.0.2.15:50234 --> 66.189.28.17:16269
lo: [i4-----] Unknown 10.0.2.15:28681 --> 114.36.234.196:11629
lo: [i4-----] Unknown 10.0.2.15:28681 <-- 119.247.152.218:51920
lo: [i4-----] Unknown 10.0.2.15:28681 --> 108.44.45.25:6346
lo: [i4-----] Unknown 10.0.2.15:28681 --> 61.238.173.128:8826
lo: [i4-----] Unknown 10.0.2.15:28681 <-- 104.156.226.72:53258
lo: [i4-----] Unknown 10.0.2.15:50193 --> 89.75.52.19:46010
lo: [i4-----] Unknown 10.0.2.15:28681 <-- 113.252.86.162:54459
lo: [i4-----] Unknown 10.0.2.15:28681 --> 223.18.211.177:18085
lo: [i4-----] Unknown 10.0.2.15:28681 <-- 94.139.21.182:50110
lo: [i4-----] Unknown 10.0.2.15:28681 --> 119.237.116.22:7380
lo: [i4-----] Unknown 10.0.2.15:28681 <-- 61.222.160.99:53163
lo: [i4-----] Unknown 2.28.39.18:15672 <-- 10.0.2.15:28681
lo: [i4-----] Unknown 10.0.2.15:28681 <-- 109.131.202.24:44748
lo: [i4-----] Unknown 10.0.2.15:28681 --> 81.247.89.20:6346
lo: [i4-----] Unknown 10.0.2.15:28681 <-- 14.200.255.229:37058
lo: [i4-----] Unknown 10.0.2.15:28681 --> 115.69.62.99:6346
lo: [i4-----] Unknown 10.0.2.15:28681 <-- 185.187.74.173:59978
lo: [i4-----] Unknown 10.0.2.15:28681 --> 159.196.95.223:2003
lo: [i4-----] Unknown 1.36.249.91:65430 --> 10.0.2.15:28681
lo: [i4-----] Unknown 10.0.2.15:28681 --> 111.241.31.96:4814
lo: [i4-----] Unknown 10.0.2.15:28681 --> 136.32.84.139:6346
lo: [i4-----] Unknown 10.0.2.15:28681 <-- 98.18.172.208:63172
lo: [i4-----] Unknown 10.0.2.15:28681 <-- 70.119.248.5:49929
lo: [i4-----] Unknown 10.0.2.15:28681 --> 66.177.5.135:6346
lo: [i4-----] Unknown 10.0.2.15:28681 --> 218.164.39.233:20855
lo: [i4-----] Unknown 10.0.2.15:28681 --> 89.143.28.64:6346
lo: [i4-----] Unknown 10.0.2.15:50276 --> 96.246.156.126:56070
lo: [i4-----] Unknown 10.0.2.15:28681 --> 41.100.120.146:12838
lo: [i4-----] Unknown 10.0.2.15:28681 --> 76.189.72.230:8161
lo: [i4-----] Unknown 10.0.2.15:28681 --> 223.16.83.5:4765
lo: [i4-----] Unknown 10.0.2.15:28681 --> 218.164.200.235:2846
lo: [i4-----] Unknown 10.0.2.15:28681 --> 82.36.106.134:3927
lo: [i4-----] Unknown 1.172.184.48:13281 <-- 10.0.2.15:28681
lo: [i4-----] Unknown 10.0.2.15:28681 --> 91.169.215.227:26820
lo: [i4-----] Unknown 10.0.2.15:28681 --> 36.233.3.223:12848
lo: [i4-----] Unknown 10.0.2.15:50214 --> 80.193.171.146:53808
lo: [i4-----] Unknown 10.0.2.15:50190 --> 80.140.63.147:29545
lo: [i4-----] Unknown 10.0.2.15:28681 <-- 24.127.1.235:37814
lo: [i4-----] Unknown 10.0.2.15:28681 --> 82.12.1.136:6348
lo: [i4-----] Unknown 10.0.2.15:28681 <-- 36.236.203.37:52274
lo: [i4-----] Unknown 10.0.2.15:28681 --> 59.148.100.237:23459
lo: [i4-----] Unknown 10.0.2.15:28681 <-- 38.142.119.234:49867
lo: [i4-----] Unknown 10.0.2.15:50279 --> 113.252.91.201:4297
lo: [i4-----] Unknown 10.0.2.15:28681 --> 176.150.126.156:16471
lo: [i4-----] Unknown 10.0.2.15:28681 <-- 188.44.126.74:54633
lo: [i4-----] Unknown 10.0.2.15:28681 --> 109.132.196.58:6346
lo: [i4-----] Unknown 10.0.2.15:28681 --> 77.197.111.186:6346
lo: [i4-----] Unknown 10.0.2.15:28681 --> 223.16.121.156:3624
lo: [i4-----] Unknown 10.0.2.15:28681 --> 220.143.34.225:20071
lo: [i4-----] Unknown 10.0.2.15:28681 --> 172.94.41.71:6346
lo: [i4-----] Unknown 10.0.2.15:50321 --> 213.229.111.224:4876
lo: [i4-----] Unknown 10.0.2.15:28681 <-- 76.30.86.144:53821
lo: [i4-----] Unknown 10.0.2.15:28681 --> 41.99.164.4:6346
lo: [i4-----] Unknown 10.0.2.15:28681 <-- 86.75.43.182:43502
lo: [i4-----] Unknown 10.0.2.15:50202 --> 61.238.173.128:57648
lo: [i4-----] Unknown 10.0.2.15:28681 --> 41.100.68.255:12838
lo: [i4-----] Unknown 10.0.2.15:28681 --> 36.233.194.73:1995
lo: [i4-----] Unknown 10.0.2.15:28681 <-- 24.78.134.188:49046
lo: [i4-----] Unknown 10.0.2.15:28681 --> 124.218.26.16:9747
lo: [i4-----] Unknown 10.0.2.15:28681 <-- 116.49.159.77:55915
lo: [i4-----] Unknown 10.0.2.15:28681 --> 36.239.162.27:7986
lo: [i4-----] Unknown 10.0.2.15:28681 <-- 94.54.66.82:45744
lo: [i4-----] Unknown 10.0.2.15:28681 <-- 175.39.219.223:31728
lo: [i4-----] Unknown 10.0.2.15:28681 --> 177.231.151.16:6346
lo: [i4-----] Unknown 10.0.2.15:28681 --> 91.175.220.161:15721
lo: [i4-----] Unknown 10.0.2.15:28681 <-- 85.168.34.105:39908
lo: [i4-----] Unknown 10.0.2.15:28681 <-- 51.68.153.214:35004
lo: [i4-----] Unknown 10.0.2.15:28681 --> 97.83.183.148:8890
lo: [i4-----] Unknown 10.0.2.15:28681 <-- 99.255.145.191:47264
lo: [i4-----] Unknown 1.64.208.110:55550 --> 10.0.2.15:28681
lo: [i4-----] Unknown 10.0.2.15:28681 <-- 80.7.252.192:43457
lo: [i4-----] Unknown 10.0.2.15:28681 --> 145.82.53.165:6346
lo: [i4-----] Unknown 10.0.2.15:50287 --> 98.215.130.156:12405
lo: [i4-----] Unknown 10.0.2.15:28681 <-- 194.163.180.126:36780
lo: [i4-----] Unknown 10.0.2.15:28681 --> 92.24.129.230:14766
lo: [i4-----] Unknown 10.0.2.15:28681 --> 175.182.39.11:12977
lo: [i4-----] Unknown 10.0.2.15:28681 --> 115.195.105.243:6346
lo: [i4-----] Unknown 10.0.2.15:50251 --> 24.127.1.235:37814
lo: [i4-----] Unknown 10.0.2.15:28681 --> 86.23.75.69:6346
lo: [i4-----] Unknown 10.0.2.15:28681 <-- 123.205.118.77:62191
lo: [i4-----] Unknown 10.0.2.15:28681 <-- 123.205.118.77:56562
lo: [i4-----] Unknown 10.0.2.15:28681 --> 144.134.132.206:16401
lo: [i4-----] Unknown 10.0.2.15:28681 <-- 83.134.107.32:38836
lo: [i4-----] Unknown 10.0.2.15:28681 --> 202.151.63.59:7624
lo: [i4-----] Unknown 10.0.2.15:50225 --> 109.210.81.147:24800
lo: [i4-----] Unknown 10.0.2.15:28681 <-- 86.153.21.93:36696
lo: [i4-----] Unknown 10.0.2.15:28681 <-- 88.123.35.219:42211
lo: [i4-----] Unknown 10.0.2.15:50270 --> 114.27.24.95:11427
lo: [i4-----] Unknown 10.0.2.15:28681 --> 200.120.243.143:6346
lo: [i4-----] Unknown 10.0.2.15:50242 --> 109.210.203.131:6346
lo: [i4-----] Unknown 10.0.2.15:28681 <-- 61.18.212.223:50637
lo: [i4-----] Unknown 10.0.2.15:28681 --> 112.105.52.2:6831
lo: [i4-----] Unknown 10.0.2.15:28681 <-- 112.119.74.26:65498
lo: [i4-----] Unknown 10.0.2.15:28681 --> 58.115.158.103:5110
lo: [i4-----] Unknown 10.0.2.15:28681 <-- 84.71.243.60:34498
lo: [i4-----] Unknown 10.0.2.15:28681 <-- 91.182.44.202:30277
lo: [i4-----] Unknown 10.0.2.15:28681 --> 165.169.226.142:6346
lo: [i4-----] Unknown 10.0.2.15:50244 --> 188.61.52.183:63978
lo: [i4-----] Unknown 10.0.2.15:50238 --> 124.218.41.253:59144
lo: [i4-----] Unknown 10.0.2.15:28681 --> 50.58.238.149:6599
lo: [i4-----] Unknown 1.172.184.48:1512 <-- 10.0.2.15:28681
lo: [i4-----] Unknown 10.0.2.15:28681 <-- 90.8.95.165:40763
lo: [i4-----] Unknown 10.0.2.15:28681 --> 119.247.6.226:9713
lo: [i4-----] Unknown 10.0.2.15:28681 <-- 94.215.183.71:31310
lo: [i4-----] Unknown 10.0.2.15:28681 --> 113.252.86.162:9239
lo: [i4-----] Unknown 10.0.2.15:28681 --> 142.197.219.85:26234
lo: [i4-----] Unknown 10.0.2.15:28681 --> 176.163.231.160:6346
lo: [i4-----] Unknown 10.0.2.2:5351 <-- 10.0.2.15:57619
lo: [i4-----] Unknown 10.0.2.15:28681 --> 104.156.226.72:19814
lo: [i4-----] Unknown 10.0.2.15:28681 --> 119.237.116.22:2566
lo: [i4-----] Unknown 10.0.2.15:28681 <-- 111.184.29.35:30582
lo: [i4-----] Unknown 10.0.2.15:28681 --> 79.94.85.113:6346
lo: [i4-----] Unknown 10.0.2.15:28681 <-- 80.193.171.146:53143
lo: [i4-----] Unknown 10.0.2.15:28681 <-- 36.231.59.187:62234
lo: [i4-----] Unknown 10.0.2.15:28681 <-- 86.193.23.172:42227
lo: [i4-----] Unknown 10.0.2.15:28681 --> 89.187.171.240:6346
lo: [i4-----] Unknown 10.0.2.15:28681 <-- 196.74.159.56:29271
lo: [i4-----] Unknown 10.0.2.15:28681 --> 74.195.236.249:18557
lo: [i4-----] Unknown 10.0.2.15:28681 <-- 94.214.12.247:44001
lo: [i4-----] Unknown 10.0.2.15:28681 <-- 88.124.71.246:49035
lo: [i4-----] Unknown 10.0.2.15:28681 --> 75.64.6.175:4743
lo: [i4-----] Unknown 10.0.2.15:28681 <-- 45.31.152.112:52420
lo: [i4-----] Unknown 10.0.2.15:28681 <-- 121.7.145.36:33905
lo: [i4-----] Unknown 10.0.2.15:28681 <-- 173.22.22.94:34245
lo: [i4-----] Unknown 10.0.2.15:28681 --> 220.39.142.122:6346
lo: [i4-----] Unknown 10.0.2.15:28681 --> 176.191.49.159:1024
lo: [i4-----] Unknown 10.0.2.15:28681 <-- 123.192.83.59:33513
lo: [i4-----] Unknown 10.0.2.15:28681 <-- 61.220.41.241:53072
lo: [i4-----] Unknown 10.0.2.15:28681 <-- 73.62.225.181:46843
lo: [i4-----] Unknown 10.0.2.15:28681 <-- 123.203.72.224:55577
lo: [i4-----] Unknown 10.0.2.15:28681 --> 50.4.204.220:6346
lo: [i4-----] Unknown 10.0.2.15:28681 --> 191.114.88.39:18751
lo: [i4-----] Unknown 10.0.2.15:28681 <-- 208.92.106.151:32476
lo: [i4-----] Unknown 10.0.2.15:28681 --> 42.2.62.28:6387
lo: [i4-----] Unknown 10.0.2.15:28681 <-- 101.128.66.8:34512
lo: [i4-----] Unknown 10.0.2.15:28681 --> 218.35.66.21:22234
lo: [i4-----] Unknown 10.0.2.15:28681 --> 176.135.15.86:6346
lo: [i4-----] Unknown 10.0.2.15:28681 --> 88.122.233.15:11488
lo: [i4-----] Unknown 10.0.2.15:28681 --> 196.217.132.111:25394
lo: [i4-----] Unknown 5.180.62.100:46385 --> 10.0.2.15:28681
lo: [i4-----] Unknown 10.0.2.15:50243 --> 176.138.129.252:27962
lo: [i4-----] Unknown 10.0.2.15:28681 <-- 113.252.86.162:59875
lo: [i4-----] Unknown 10.0.2.15:28681 --> 89.241.112.255:14766
lo: [i4-----] Unknown 10.0.2.15:28681 --> 186.93.139.92:6346
lo: [i4-----] Unknown 10.0.2.15:28681 --> 174.115.127.251:23897
lo: [i4-----] Unknown 10.0.2.15:50210 --> 36.234.18.166:61404
lo: [i4-----] Unknown 10.0.2.15:28681 --> 112.10.134.44:19739
lo: [i4-----] Unknown 10.0.2.15:28681 --> 36.237.10.152:21293
lo: [i4-----] Unknown 10.0.2.15:28681 --> 114.27.24.95:10655
lo: [i4-----] Unknown 10.0.2.15:28681 --> 36.229.185.60:6898
lo: [i4-----] Unknown 10.0.2.15:28681 <-- 42.72.149.140:37848
lo: [i4-----] Unknown 10.0.2.15:50254 --> 24.78.134.188:49046
lo: [i4-----] Unknown 10.0.2.15:50240 --> 36.237.10.152:21293
lo: [i4-----] Unknown 10.0.2.15:50239 --> 112.105.52.2:6384
lo: [i4-----] Unknown 10.0.2.15:28681 <-- 219.91.30.216:61635
lo: [i4-----] Unknown 10.0.2.15:28681 --> 114.40.67.191:14971
lo: [i4-----] Unknown 1.64.156.63:60092 --> 10.0.2.15:28681
lo: [i4-----] Unknown 10.0.2.15:28681 <-- 95.10.205.67:48380
lo: [i4-----] Unknown 10.0.2.15:28681 --> 223.16.170.108:23458
lo: [i4-----] Unknown 10.0.2.15:28681 <-- 114.40.163.123:55341
lo: [i4-----] Unknown 10.0.2.15:28681 <-- 119.247.152.218:51153
lo: [i4-----] Unknown 10.0.2.15:28681 <-- 85.172.10.90:40162
lo: [i4-----] Unknown 10.0.2.15:28681 <-- 92.8.59.80:35192
lo: [i4-----] Unknown 10.0.2.15:28681 <-- 190.153.143.54:65535
lo: [i4-----] Unknown 1.65.217.224:3688 <-- 10.0.2.15:28681
lo: [i4-----] Unknown 1.162.138.200:24018 <-- 10.0.2.15:28681
lo: [i4-----] Unknown 10.0.2.15:28681 --> 14.199.10.60:23458
lo: [i4-----] Unknown 10.0.2.15:28681 <-- 75.133.101.93:52367
lo: [i4-----] Unknown 10.0.2.15:50245 --> 73.62.225.181:46843
lo: [i4-----] Unknown 10.0.2.15:28681 <-- 113.252.83.132:57131
lo: [i4-----] Unknown 10.0.2.15:28681 <-- 73.89.249.8:50649
lo: [i4-----] Unknown 10.0.2.15:28681 --> 92.144.99.73:10745
lo: [i4-----] Unknown 10.0.2.15:28681 --> 88.68.45.203:6346
lo: [i4-----] Unknown 10.0.2.15:28681 --> 68.227.193.37:27481
lo: [i4-----] Unknown 10.0.2.15:28681 <-- 88.123.159.111:44729
lo: [i4-----] Unknown 10.0.2.15:50256 --> 36.233.201.161:2886
lo: [i4-----] Unknown 10.0.2.15:28681 --> 50.58.238.163:6594
lo: [i4-----] Unknown 10.0.2.15:28681 <-- 113.252.86.162:59384
lo: [i4-----] Unknown 10.0.2.15:28681 <-- 58.176.62.40:52889
lo: [i4--g--] Cisco/VPN 10.0.2.15:28681 --> 107.4.56.177:10000
lo: [i4-----] Unknown 10.0.2.15:28681 --> 61.64.177.53:23458
lo: [i4-----] Unknown 10.0.2.15:28681 --> 213.166.132.204:11194
lo: [i4-----] Unknown 10.0.2.15:28681 --> 220.133.122.217:23458
lo: [i4-----] Unknown 10.0.2.15:28681 --> 70.81.219.111:19210
lo: [i4-----] Unknown 10.0.2.15:28681 --> 45.65.87.24:16201
lo: [i4-----] Unknown 10.0.2.15:28681 <-- 59.104.173.5:49787
lo: [i4-----] Unknown 10.0.2.15:28681 <-- 114.39.159.60:56896
lo: [i4-----] Unknown 1.36.249.91:64920 <-- 10.0.2.15:50229
lo: [i4-----] Unknown 10.0.2.15:50208 --> 119.237.116.22:8683
lo: [i4-----] Unknown 10.0.2.15:28681 <-- 61.238.173.128:57492
lo: [i4-----] Unknown 10.0.2.15:50273 --> 24.179.18.242:47329
lo: [i4-----] Unknown 10.0.2.15:28681 --> 165.169.195.227:6346
lo: [i4-----] Unknown 10.0.2.15:28681 <-- 112.119.242.110:59879
lo: [i4-----] Unknown 10.0.2.15:28681 <-- 118.167.222.160:56121
lo: [i4-----] Unknown 10.0.2.15:28681 --> 200.7.155.210:28365
lo: [i4-----] Unknown 10.0.2.15:50220 --> 36.233.196.226:3820
lo: [i4-----] Unknown 10.0.2.15:28681 <-- 61.222.160.99:53195
lo: [i4-----] Unknown 10.0.2.15:28681 <-- 113.255.250.32:52660
lo: [i4-----] Unknown 10.0.2.15:50310 --> 76.110.153.177:40022
lo: [i4-----] Unknown 10.0.2.15:50205 --> 114.46.139.171:52120
lo: [i4-----] Unknown 10.0.2.15:28681 --> 112.105.52.2:23458
lo: [i4-----] Unknown 10.0.2.15:28681 --> 36.237.25.47:21293
lo: [i4-----] Unknown 10.0.2.15:28681 <-- 66.30.221.181:53454
lo: [i4-----] Unknown 10.0.2.15:28681 --> 119.246.147.72:4572
lo: [i4-----] Unknown 10.0.2.15:28681 --> 47.156.58.211:6346
lo: [i4-----] Unknown 10.0.2.15:28681 --> 90.3.215.132:20356
lo: [i4-----] Unknown 10.0.2.15:50260 --> 113.255.200.161:51394
lo: [i4-----] Unknown 10.0.2.15:28681 <-- 164.132.10.25:47808
lo: [i4-----] Unknown 10.0.2.15:28681 --> 50.58.238.149:6514
lo: [i4-----] Unknown 10.0.2.15:28681 --> 86.239.62.213:6346
lo: [i4-----] Unknown 10.0.2.15:50230 --> 73.3.103.37:17296
lo: [i4-----] Unknown 10.0.2.15:28681 --> 123.203.72.224:9897
lo: [i4-----] Unknown 10.0.2.15:28681 <-- 118.168.15.71:53707
lo: [i4-----] Unknown 10.0.2.15:28681 --> 219.70.175.103:4315
lo: [i4-----] Unknown 10.0.2.15:28681 <-- 61.238.173.128:57466
lo: [i4-----] Unknown 10.0.2.15:28681 --> 87.65.188.29:24676
lo: [i4-----] Unknown 10.0.2.15:28681 <-- 156.57.42.2:33476
lo: [i4-----] Unknown 10.0.2.15:50271 --> 218.164.198.27:60202
lo: [i4-----] Unknown 10.0.2.15:28681 <-- 89.157.59.43:56919
lo: [i4-----] Unknown 10.0.2.15:28681 --> 193.250.99.158:6346
lo: [i4-----] Unknown 10.0.2.15:28681 <-- 113.252.206.254:49737
lo: [i4-----] Unknown 10.0.2.15:28681 --> 180.200.236.13:12082
lo: [i4-----] Unknown 10.0.2.15:50289 --> 74.195.236.249:18557
lo: [i4-----] Unknown 1.172.184.48:13298 <-- 10.0.2.15:50272
lo: [i4-----] Unknown 10.0.2.15:28681 --> 88.168.182.103:6346
lo: [i4-----] Unknown 10.0.2.15:28681 <-- 176.138.50.179:29411
lo: [i4-----] Unknown 10.0.2.15:28681 --> 90.65.141.157:6346
lo: [i4-----] Unknown 10.0.2.15:28681 --> 65.182.231.232:7890
lo: [i4-----] Unknown 10.0.2.15:50290 --> 73.89.249.8:50649
lo: [i4-----] Unknown 10.0.2.15:28681 <-- 121.99.222.36:44988
lo: [i4-----] Unknown 10.0.2.15:28681 --> 93.29.107.176:20363
lo: [i4-----] Unknown 10.0.2.15:28681 <-- 105.101.132.146:57746
lo: [i4-----] Unknown 10.0.2.15:28681 --> 203.222.14.170:23332
lo: [i4-----] Unknown 10.0.2.15:50228 --> 111.241.31.96:14384
lo: [i4-----] Unknown 10.0.2.15:28681 --> 98.249.190.8:25198
lo: [i4-----] Unknown 10.0.2.15:28681 --> 50.58.238.149:6527
lo: [i4-----] Unknown 10.0.2.15:28681 --> 58.115.108.10:4641
lo: [i4-----] Unknown 10.0.2.15:28681 --> 68.47.223.27:6346
lo: [i4-----] Unknown 10.0.2.15:28681 --> 119.247.240.113:13867
lo: [i4-----] Unknown 10.0.2.15:28681 <-- 80.140.63.147:29545
lo: [i4-----] Unknown 10.0.2.15:28681 --> 92.88.92.56:21009
lo: [i4-----] Unknown 10.0.2.15:28681 <-- 180.218.135.222:49867
lo: [i4-----] Unknown 10.0.2.15:28681 --> 114.27.24.95:11141
lo: [i4-----] Unknown 10.0.2.15:28681 --> 113.255.250.32:23458
lo: [i4-----] Unknown 1.161.80.82:8656 <-- 10.0.2.15:28681
lo: [i4-----] Unknown 10.0.2.15:28681 --> 31.38.163.2:6346
lo: [i4-----] Unknown 10.0.2.15:28681 <-- 124.244.68.65:51967
lo: [i4-----] Unknown 10.0.2.15:28681 <-- 114.47.227.91:58856
lo: [i4-----] Unknown 10.0.2.15:28681 --> 74.50.147.205:17735
lo: [i4-----] Unknown 10.0.2.15:50277 --> 82.181.251.218:36368
lo: [i4-----] Unknown 10.0.2.15:28681 <-- 85.170.209.214:46210
lo: [i4-----] Unknown 10.0.2.15:28681 <-- 88.169.2.153:52414
lo: [i4-----] Unknown 10.0.2.15:28681 --> 106.104.88.139:7423
lo: [i4-----] Unknown 10.0.2.15:28681 <-- 80.61.221.246:45880
lo: [i4-----] Unknown 10.0.2.15:28681 --> 90.247.160.96:17817
lo: [i4-----] Unknown 10.0.2.15:28681 --> 165.84.134.136:21407
lo: [i4-----] Unknown 10.0.2.15:50281 --> 94.134.154.158:54130
lo: [i4-----] Unknown 10.0.2.15:50266 --> 219.70.175.103:4315
lo: [i4-----] Unknown 10.0.2.15:28681 --> 114.38.9.82:24223
lo: [i4-----] Unknown 10.0.2.15:50201 --> 78.122.93.185:6346
lo: [i4-----] Unknown 10.0.2.15:50191 --> 207.38.163.228:6778
lo: [i4-----] Unknown 10.0.2.15:28681 --> 218.102.208.175:9167
lo: [i4-----] Unknown 10.0.2.15:28681 --> 111.241.31.96:8349
lo: [i4-----] Unknown 10.0.2.15:28681 <-- 50.58.238.149:54436
lo: [i4-----] Unknown 1.163.14.246:1630 <-- 10.0.2.15:28681
lo: [i4-----] Unknown 10.0.2.15:28681 --> 119.237.116.22:7375
lo: [i4-----] Unknown 10.0.2.15:28681 --> 220.137.106.173:11625
lo: [i4-----] Unknown 10.0.2.15:28681 --> 100.89.84.59:11603
lo: [i4-----] Unknown 10.0.2.15:50247 --> 66.30.221.181:51560
lo: [i4-----] Unknown 10.0.2.15:28681 --> 223.16.83.5:9128
lo: [i4-----] Unknown 10.0.2.15:28681 --> 119.14.143.237:7510
lo: [i4-----] Unknown 10.0.2.15:28681 <-- 118.167.248.220:59304
lo: [i4-----] Unknown 10.0.2.15:28681 --> 219.70.48.23:8070
lo: [i4-----] Unknown 10.0.2.15:28681 <-- 118.241.204.61:43366
lo: [i4-----] Unknown 10.0.2.15:50288 --> 76.119.55.28:20347
lo: [i4-----] Unknown 10.0.2.15:28681 <-- 138.199.16.123:52993
lo: [i4-----] Unknown 10.0.2.15:50223 --> 118.167.248.220:63108
lo: [i4-----] Unknown 10.0.2.15:28681 <-- 183.179.14.31:64871
lo: [i4-----] Unknown 10.0.2.15:28681 <-- 123.202.31.113:53291
lo: [i4-----] Unknown 10.0.2.15:28681 <-- 113.255.200.161:65274
lo: [i4-----] Unknown 10.0.2.15:28681 --> 85.203.45.107:6346
lo: [i4-----] Unknown 10.0.2.15:28681 --> 79.86.173.45:6346
lo: [i4-----] Unknown 10.0.2.15:28681 --> 85.138.20.110:6346
lo: [i4-----] Unknown 10.0.2.15:28681 --> 124.244.211.43:23459
lo: [i4-----] Unknown 10.0.2.15:28681 --> 218.164.200.235:1968
lo: [i4-----] Unknown 10.0.2.15:28681 <-- 76.110.153.177:40022
lo: [i4-----] Unknown 10.0.2.15:28681 <-- 24.179.18.242:47329
lo: [i4-----] Unknown 10.0.2.15:28681 --> 182.155.128.228:3339
lo: [i4-----] Unknown 10.0.2.15:28681 --> 124.44.190.145:10170
lo: [i4-----] Unknown 10.0.2.15:50219 --> 193.121.165.12:55376
lo: [i4-----] Unknown 10.0.2.15:28681 --> 165.84.140.96:14400
lo: [i4-----] Unknown 1.65.217.224:9070 <-- 10.0.2.15:28681
lo: [i4-----] Unknown 10.0.2.15:28681 --> 114.27.24.95:10791
lo: [i4-----] Unknown 10.0.2.15:28681 --> 123.202.31.113:19768
lo: [i4-----] Unknown 10.0.2.15:28681 --> 82.120.219.74:6346
lo: [i4-----] Unknown 10.0.2.15:28681 --> 78.231.73.14:6346
lo: [i4-----] Unknown 10.0.2.15:28681 <-- 113.254.140.225:63637
lo: [i4-----] Unknown 10.0.2.15:28681 --> 61.227.198.100:6910
lo: [i4-----] Unknown 10.0.2.15:28681 --> 219.70.48.23:2556
lo: [i4-----] Unknown 10.0.2.15:28681 <-- 119.224.95.97:46356
lo: [i4-----] Unknown 10.0.2.15:28681 --> 176.155.31.118:6346
lo: [i4-----] Unknown 10.0.2.15:28681 <-- 185.187.74.173:53489
lo: [i4-----] Unknown 10.0.2.15:28681 --> 42.98.115.128:23458
lo: [i4-----] Unknown 10.0.2.15:50241 --> 98.18.172.208:63172
lo: [i4-----] Unknown 10.0.2.15:28681 <-- 220.208.167.152:30628
lo: [i4-----] Unknown 10.0.2.15:28681 <-- 94.54.66.82:45640
lo: [i4-----] Unknown 10.0.2.15:28681 --> 223.16.121.156:23183
lo: [i4-----] Unknown 10.0.2.15:28681 --> 104.238.172.250:23548
lo: [i4-----] Unknown 10.0.2.15:50286 --> 84.118.116.198:44616
lo: [i4-----] Unknown 10.0.2.15:28681 <-- 213.120.26.86:29946
lo: [i4-----] Unknown 10.0.2.15:28681 <-- 219.71.72.88:58808
lo: [i4-----] Unknown 10.0.2.15:28681 <-- 77.205.243.44:46006
lo: [i4-----] Unknown 10.0.2.15:28681 <-- 58.176.62.40:52755
lo: [i4-----] Unknown 10.0.2.15:28681 <-- 118.168.15.71:53883
lo: [i4-----] Unknown 10.0.2.15:28681 <-- 113.252.86.162:55080
lo: [i4-----] Unknown 10.0.2.15:28681 --> 210.209.249.84:24751
lo: [i4-----] Unknown 10.0.2.15:28681 --> 124.218.26.16:20387
lo: [i4-----] Unknown 10.0.2.15:28681 --> 86.210.81.59:6346
lo: [i4-----] Unknown 10.0.2.15:50274 --> 68.174.18.115:50679
lo: [i4-----] Unknown 10.0.2.15:28681 --> 170.254.19.6:24180
lo: [i4-----] Unknown 10.0.2.15:50246 --> 80.7.252.192:45685
lo: [i4-----] Unknown 10.0.2.15:28681 --> 81.50.24.2:17874
lo: [i4-----] Unknown 10.0.2.15:28681 <-- 220.129.86.65:49723
lo: [i4-----] Unknown 10.0.2.15:28681 <-- 142.132.165.13:30566
lo: [i4-----] Unknown 10.0.2.15:28681 --> 123.205.126.102:5193
lo: [i4-----] Unknown 10.0.2.15:28681 --> 202.27.193.6:6346
lo: [i4-----] Unknown 10.0.2.15:28681 --> 119.237.116.22:7849
lo: [i4-----] Unknown 10.0.2.15:28681 --> 218.173.230.98:19004
lo: [i4-----] Unknown 10.0.2.15:28681 --> 118.165.153.100:4509
lo: [i4-----] Unknown 10.0.2.15:28681 <-- 76.175.11.126:40958
lo: [i4-----] Unknown 10.0.2.15:28681 --> 81.249.64.215:25058
lo: [i4-----] Unknown 10.0.2.15:28681 <-- 73.3.103.37:35589
lo: [i4-----] Unknown 10.0.2.15:28681 --> 178.51.146.115:6346
lo: [i4-----] Unknown 10.0.2.15:50227 --> 111.246.157.94:51175
lo: [i4-----] Unknown 10.0.2.15:50217 --> 113.252.86.162:54958
